acidity,chlorides,sulphates,quality
0.7,0.076,0.56,Low
0.88,0.098,0.68,Low
0.76,0.092,0.65,Low
0.28,0.075,0.58,High
0.7,0.076,0.56,Low
0.66,0.075,0.56,Low
0.6,0.069,0.46,Low
0.65,0.065,0.47,High
0.58,0.073,0.57,High
0.5,0.071,0.8,Low
0.58,0.097,0.54,Low
0.5,0.071,0.8,Low
0.615,0.089,0.52,Low
0.61,0.114,1.56,Low
0.62,0.176,0.88,Low
0.62,0.17,0.93,Low
0.28,0.092,0.75,High
0.56,0.368,1.28,Low
0.59,0.086,0.5,Low
0.32,0.341,1.08,High
0.22,0.077,0.53,High
0.39,0.082,0.65,Low
0.43,0.106,0.91,Low
0.49,0.084,0.53,Low
0.4,0.085,0.63,High
0.39,0.08,0.56,Low
0.41,0.08,0.59,Low
0.43,0.106,0.91,Low
0.71,0.08,0.55,Low
0.645,0.082,0.59,High
0.675,0.089,0.54,Low
0.685,0.105,0.57,High
0.655,0.083,0.66,Low
0.605,0.073,0.52,High
0.32,0.103,0.55,Low
0.645,0.086,0.55,High
0.6,0.086,0.6,High
0.38,0.066,0.73,High
1.13,0.172,0.48,Low
0.45,0.074,0.83,Low
0.45,0.074,0.83,Low
0.61,0.088,0.51,Low
0.49,0.332,0.9,High
0.66,0.069,1.2,Low
0.67,0.05,0.52,Low
0.52,0.054,0.56,Low
0.935,0.114,0.73,Low
0.29,0.113,0.58,Low
0.4,0.066,0.56,Low
0.31,0.074,0.58,Low
0.66,0.074,0.74,Low
0.52,0.069,0.63,High
0.5,0.068,0.64,High
0.38,0.081,0.56,Low
0.51,0.11,0.63,High
0.62,0.084,0.53,Low
0.42,0.07,0.63,Low
0.63,0.111,0.77,Low
0.59,0.076,0.59,Low
0.39,0.074,0.54,High
0.4,0.079,0.64,Low
0.69,0.115,0.71,Low
0.52,0.085,0.62,High
0.735,0.081,0.57,Low
0.725,0.086,0.39,Low
0.725,0.086,0.39,Low
0.52,0.079,0.58,Low
0.705,0.076,0.58,Low
0.32,0.074,0.79,Low
0.705,0.074,0.95,High
0.63,0.076,0.54,High
0.67,0.088,0.48,Low
0.69,0.084,0.48,Low
0.675,0.084,0.53,Low
0.32,0.094,0.82,Low
0.41,0.093,0.66,Low
0.41,0.093,0.66,Low
0.785,0.104,0.55,High
0.75,0.086,0.52,Low
0.625,0.08,1.12,Low
0.45,0.069,0.56,Low
0.43,0.464,1.28,Low
0.5,0.086,0.57,Low
0.67,0.401,1.14,Low
0.3,0.069,0.78,High
0.55,0.076,0.59,Low
0.49,0.11,1.95,High
0.49,0.062,0.64,Low
0.39,0.107,1.22,Low
0.62,0.076,0.53,Low
0.52,0.079,0.54,Low
0.49,0.11,1.95,High
0.49,0.11,1.98,Low
0.49,0.062,0.64,Low
1.02,0.045,0.48,Low
0.6,0.058,0.6,High
0.775,0.102,0.56,Low
0.5,0.07,0.63,Low
0.9,0.079,0.56,Low
0.545,0.08,0.59,High
0.61,0.084,0.61,High
0.5,0.075,0.56,High
0.545,0.08,0.59,High
0.575,0.077,0.51,Low
0.49,0.07,0.48,Low
0.575,0.077,0.51,Low
0.41,0.467,1.31,Low
0.63,0.088,0.79,Low
0.33,0.091,0.8,High
0.785,0.122,0.69,Low
0.56,0.104,0.93,Low
0.62,0.084,0.66,Low
0.6,0.085,0.66,Low
0.31,0.08,0.67,High
0.56,0.104,0.93,Low
0.4,0.09,0.63,High
0.54,0.077,0.61,High
0.56,0.082,0.5,High
0.55,0.119,0.6,High
0.69,0.097,0.54,High
1.07,0.178,0.57,Low
0.55,0.119,0.6,High
0.695,0.075,0.52,Low
0.71,0.08,0.53,Low
0.5,0.082,0.48,Low
0.62,0.146,0.7,Low
1.33,0.081,0.49,Low
1.33,0.082,0.48,Low
0.59,0.065,0.92,High
0.38,0.072,0.57,Low
0.745,0.118,0.66,Low
0.5,0.049,0.63,Low
0.5,0.049,0.63,Low
0.5,0.06,0.58,High
1.04,0.084,0.55,High
0.745,0.09,0.82,Low
0.715,0.089,0.77,Low
0.415,0.081,0.64,Low
0.56,0.081,0.54,Low
0.56,0.081,0.54,Low
0.745,0.09,0.82,Low
0.715,0.089,0.77,Low
0.34,0.05,0.79,High
0.39,0.066,0.58,Low
0.34,0.05,0.79,High
0.67,0.117,0.62,Low
0.68,0.087,0.52,Low
0.49,0.236,0.8,Low
0.49,0.074,0.58,High
0.4,0.089,0.61,High
0.33,0.077,0.53,High
0.52,0.61,2.0,Low
0.6,0.095,0.54,Low
0.6,0.095,0.54,Low
0.43,0.07,0.72,Low
0.43,0.071,0.71,Low
0.43,0.07,0.72,Low
0.43,0.071,0.71,Low
0.68,0.073,0.5,Low
0.6,0.079,0.57,High
0.95,0.09,0.56,Low
0.68,0.072,1.08,Low
0.53,0.076,0.56,High
0.6,0.07,0.49,Low
0.59,0.07,0.49,Low
0.63,0.1,0.62,Low
0.64,0.085,0.52,Low
0.55,0.072,0.48,Low
0.63,0.089,0.55,High
0.705,0.36,1.59,Low
0.885,0.058,0.33,Low
0.42,0.073,0.61,High
0.42,0.073,0.61,High
0.62,0.068,0.57,High
0.38,0.08,0.47,Low
0.5,0.085,0.78,Low
0.38,0.08,0.47,Low
0.52,0.087,0.61,High
0.805,0.068,0.56,Low
0.61,0.067,0.59,Low
0.61,0.067,0.59,Low
0.61,0.27,1.02,Low
0.73,0.076,0.52,Low
0.61,0.077,0.58,Low
0.62,0.079,0.58,High
0.31,0.111,0.53,Low
0.39,0.082,0.55,Low
0.705,0.084,0.49,Low
0.5,0.084,0.55,Low
0.49,0.082,0.55,Low
0.5,0.077,0.62,Low
0.37,0.074,0.62,High
0.63,0.099,0.61,Low
0.55,0.071,0.55,Low
0.55,0.071,0.55,Low
0.59,0.074,0.54,Low
0.58,0.074,0.59,Low
0.3,0.067,0.97,High
0.835,0.046,0.85,High
1.09,0.061,0.43,Low
0.32,0.056,0.82,High
0.37,0.097,1.03,Low
0.5,0.075,0.79,Low
0.42,0.088,0.55,Low
0.43,0.089,0.56,High
0.3,0.095,0.77,High
0.3,0.095,0.77,High
0.57,0.069,0.53,Low
0.44,0.1,0.67,Low
0.3,0.054,0.88,High
0.53,0.039,0.86,High
0.725,0.083,0.56,High
0.44,0.059,0.67,High
0.57,0.06,0.43,Low
0.735,0.092,0.71,High
0.49,0.06,0.76,Low
0.625,0.101,0.57,Low
0.725,0.072,0.55,Low
0.49,0.076,0.54,Low
0.53,0.08,0.6,Low
0.34,0.082,0.59,High
0.53,0.101,0.57,Low
0.61,0.057,0.6,Low
0.645,0.083,0.6,High
0.635,0.089,0.57,Low
0.43,0.073,0.58,High
0.59,0.337,1.61,High
0.82,0.089,0.63,Low
0.43,0.073,0.58,High
0.52,0.081,0.5,Low
0.48,0.054,0.62,High
0.38,0.078,0.52,High
0.37,0.09,0.7,High
0.52,0.081,0.5,Low
1,0.065,0.55,High
0.63,0.097,0.58,High
0.63,0.097,0.58,High
0.645,0.097,0.58,High
0.63,0.097,0.58,High
1,0.065,0.55,High
0.635,0.263,1.09,Low
0.38,0.093,0.71,High
0.58,0.102,0.49,High
0.21,0.075,0.84,High
0.21,0.075,0.84,High
0.66,0.084,0.96,High
0.68,0.075,0.52,Low
0.6,0.072,0.45,Low
0.53,0.074,0.48,High
0.66,0.084,0.96,High
0.32,0.063,0.78,High
0.6,0.074,0.7,High
0.35,0.09,0.53,Low
0.775,0.092,0.59,Low
0.6,0.074,0.7,High
0.57,0.073,0.57,Low
0.34,0.075,0.62,Low
0.695,0.075,0.67,Low
0.41,0.611,1.26,Low
0.31,0.085,0.8,High
0.33,0.077,0.65,Low
0.975,0.087,0.6,Low
0.52,0.07,0.57,Low
0.37,0.077,0.67,Low
0.56,0.064,0.87,Low
0.26,0.071,0.72,High
0.87,0.096,0.72,Low
0.35,0.078,0.86,High
0.54,0.077,0.91,High
0.18,0.104,0.97,High
0.545,0.087,0.67,High
0.18,0.104,0.97,High
0.37,0.071,0.78,Low
0.715,0.076,0.64,Low
0.65,0.088,0.77,Low
0.545,0.087,0.67,High
0.54,0.077,0.91,High
0.18,0.104,0.97,High
0.32,0.073,0.82,High
0.4,0.087,0.77,High
0.26,0.071,0.82,High
0.27,0.358,1.08,High
0.52,0.067,0.57,Low
0.4,0.087,0.77,High
0.59,0.102,0.71,Low
0.59,0.102,0.71,Low
0.45,0.073,0.76,High
0.4,0.092,0.7,High
0.52,0.091,0.86,High
0.42,0.105,0.95,Low
0.52,0.091,0.86,High
0.2,0.343,0.71,Low
0.55,0.091,0.64,High
0.36,0.098,0.6,High
0.34,0.094,0.81,High
0.5,0.073,0.64,Low
0.83,0.086,0.52,Low
0.63,0.083,0.73,Low
0.65,0.094,0.8,Low
0.67,0.08,0.71,Low
0.53,0.086,0.59,High
0.18,0.068,0.64,High
0.705,0.092,0.72,Low
0.67,0.186,0.54,Low
0.65,0.112,0.52,Low
0.53,0.063,0.59,High
0.62,0.082,0.52,Low
0.41,0.213,0.62,High
0.43,0.214,0.63,High
0.29,0.062,0.53,High
0.53,0.063,0.59,High
0.53,0.072,0.54,High
0.46,0.093,0.63,High
0.47,0.076,0.53,Low
0.36,0.087,0.68,Low
0.35,0.096,0.65,High
0.56,0.102,0.65,Low
0.77,0.082,0.64,High
0.66,0.083,0.71,High
0.77,0.082,0.64,High
0.66,0.083,0.71,High
0.61,0.09,0.62,Low
0.62,0.079,0.63,Low
0.59,0.09,0.7,High
0.49,0.071,0.69,High
0.49,0.071,0.69,High
0.53,0.121,0.74,High
0.44,0.107,0.83,Low
0.27,0.082,0.67,High
0.46,0.061,0.62,Low
0.36,0.122,0.66,High
0.36,0.122,0.66,High
0.58,0.066,0.54,High
0.56,0.105,0.52,Low
0.65,0.078,0.74,High
0.695,0.128,0.84,High
0.43,0.052,0.7,High
0.43,0.08,0.64,Low
0.49,0.103,1,High
0.28,0.082,1.36,High
0.34,0.066,1.18,High
0.42,0.065,0.87,High
0.39,0.118,0.75,High
0.39,0.118,0.75,High
0.57,0.082,0.78,High
0.685,0.067,0.81,Low
0.815,0.072,0.89,High
0.49,0.093,0.93,High
0.56,0.089,0.92,High
0.785,0.093,0.86,High
0.67,0.107,0.98,High
0.795,0.096,0.83,High
0.665,0.09,0.73,Low
0.53,0.12,0.77,Low
0.21,0.066,0.59,High
0.75,0.078,0.61,High
0.41,0.08,0.88,Low
0.42,0.116,0.75,High
0.43,0.109,0.85,High
0.38,0.088,0.68,High
0.7,0.099,0.7,Low
0.45,0.086,0.91,High
0.58,0.072,0.56,Low
0.46,0.071,0.87,Low
0.615,0.083,0.73,High
0.42,0.107,0.93,High
0.615,0.083,0.73,High
0.575,0.076,0.69,Low
0.34,0.159,0.64,Low
0.27,0.074,1.13,High
0.765,0.063,0.78,Low
0.24,0.056,0.87,High
0.28,0.067,1.04,High
0.55,0.106,0.63,Low
0.41,0.089,0.81,High
0.54,0.124,0.83,High
0.45,0.078,1.11,High
0.27,0.074,1.13,High
0.625,0.088,0.99,High
0.42,0.094,0.7,High
0.26,0.08,0.8,High
0.415,0.085,0.8,High
0.26,0.08,0.8,High
0.26,0.08,0.8,High
0.51,0.087,0.74,Low
0.63,0.09,0.76,High
0.54,0.088,0.74,High
0.66,0.079,0.54,High
0.46,0.088,0.74,High
0.38,0.096,0.7,High
0.85,0.045,0.82,High
0.415,0.085,0.8,High
0.37,0.082,0.51,Low
0.665,0.112,0.54,Low
0.6,0.063,0.57,Low
0.37,0.066,0.6,High
0.735,0.122,0.53,Low
0.59,0.087,0.65,High
0.59,0.087,0.65,High
0.765,0.064,0.55,Low
0.735,0.122,0.53,Low
0.26,0.059,0.47,High
0.48,0.085,0.61,High
0.6,0.085,0.63,High
0.69,0.075,0.61,Low
0.31,0.059,0.76,High
0.44,0.063,0.65,High
0.39,0.093,0.63,High
0.34,0.174,0.7,High
0.46,0.07,0.57,Low
0.43,0.08,0.62,High
0.45,0.08,0.62,Low
0.735,0.1,0.64,Low
0.4,0.097,0.82,High
0.52,0.087,0.61,Low
0.725,0.117,1.07,Low
0.48,0.111,0.66,High
0.58,0.091,0.48,Low
0.38,0.121,0.76,High
0.77,0.066,0.68,Low
0.56,0.089,0.73,High
0.84,0.059,0.56,High
0.96,0.047,0.44,Low
0.24,0.066,0.9,High
0.96,0.047,0.44,Low
0.84,0.059,0.56,High
0.67,0.045,0.49,High
0.78,0.077,0.56,High
0.52,0.07,0.6,Low
0.84,0.088,0.6,High
0.24,0.066,0.9,High
0.55,0.074,0.56,Low
0.37,0.078,0.65,High
0.39,0.091,0.49,Low
0.41,0.076,0.89,High
0.39,0.091,0.49,Low
0.67,0.06,0.56,High
0.45,0.066,0.66,High
0.41,0.076,0.89,High
0.62,0.062,0.6,Low
0.31,0.072,0.82,High
0.4,0.068,0.68,High
0.685,0.1,0.68,High
0.44,0.077,0.63,High
0.57,0.054,0.84,High
0.735,0.079,0.56,High
0.38,0.081,0.73,Low
0.48,0.127,0.72,Low
0.53,0.1,0.56,High
0.39,0.095,0.61,High
0.39,0.095,0.61,High
0.37,0.413,1.06,High
0.56,0.084,0.63,High
0.33,0.084,0.74,High
0.23,0.063,0.63,Low
0.62,0.086,0.69,High
0.59,0.095,0.58,Low
0.63,0.097,0.58,Low
0.33,0.084,0.74,High
0.58,0.074,0.57,Low
0.43,0.083,0.61,High
0.615,0.087,0.61,Low
0.26,0.085,0.61,Low
0.66,0.098,0.53,Low
0.315,0.084,0.7,High
0.29,0.098,0.91,Low
0.5,0.069,0.72,High
0.46,0.065,0.79,High
0.36,0.09,0.62,High
0.82,0.07,0.58,Low
0.32,0.093,0.61,Low
0.54,0.081,0.71,High
0.37,0.083,0.82,High
0.35,0.062,0.79,Low
0.28,0.08,0.89,High
0.68,0.087,0.6,Low
0.27,0.091,0.7,Low
0.24,0.075,1.06,High
0.68,0.087,0.6,Low
0.685,0.077,0.7,High
0.28,0.069,0.66,Low
0.3,0.08,0.92,High
0.36,0.152,1.05,Low
0.36,0.152,1.06,Low
0.44,0.114,0.66,High
0.67,0.054,0.47,Low
0.67,0.054,0.47,Low
0.645,0.053,0.42,High
0.32,0.081,0.92,High
0.39,0.073,0.75,High
0.775,0.078,0.67,High
0.41,0.055,0.79,High
0.4,0.052,0.9,High
0.69,0.086,0.74,High
0.39,0.051,0.55,High
0.35,0.07,0.65,High
0.52,0.081,0.65,High
0.34,0.09,0.79,Low
0.35,0.07,0.65,High
0.69,0.086,0.74,High
0.52,0.081,0.65,High
0.44,0.074,0.85,High
0.44,0.074,0.85,High
0.26,0.078,1.04,High
0.24,0.077,1.05,High
0.49,0.072,0.78,High
0.24,0.075,1.02,High
0.67,0.084,0.71,High
0.59,0.09,0.63,High
0.29,0.084,0.68,High
0.42,0.073,0.61,Low
0.59,0.09,0.63,High
0.4,0.125,0.81,High
0.51,0.107,0.66,High
0.51,0.107,0.66,High
0.655,0.122,1.14,Low
0.6,0.1,0.74,High
0.61,0.2,0.63,Low
0.21,0.088,0.68,High
0.365,0.088,0.78,Low
0.25,0.088,0.9,High
0.41,0.088,0.64,Low
0.39,0.099,0.99,Low
0.4,0.085,0.55,Low
0.43,0.086,0.64,Low
0.64,0.105,0.67,Low
0.365,0.088,0.78,Low
0.38,0.097,0.77,High
0.42,0.084,0.75,High
0.63,0.077,0.57,Low
0.22,0.078,0.87,High
0.38,0.098,0.61,Low
0.38,0.098,0.61,Low
0.27,0.072,0.66,High
0.48,0.102,0.56,High
0.22,0.078,0.87,High
0.63,0.077,0.57,Low
0.825,0.084,0.77,High
0.35,0.066,0.66,High
0.5,0.1,0.62,Low
0.59,0.101,0.67,Low
0.46,0.064,0.73,High
0.715,0.07,0.59,Low
0.66,0.085,0.72,High
0.31,0.075,0.79,High
0.47,0.094,0.59,Low
0.55,0.078,0.78,High
0.31,0.067,0.86,High
0.35,0.079,0.75,High
0.53,0.171,0.61,High
0.51,0.074,0.56,High
0.43,0.092,0.73,High
0.46,0.092,0.74,High
1.04,0.05,0.62,Low
0.645,0.095,0.74,Low
0.645,0.095,0.74,Low
0.53,0.118,0.56,High
0.645,0.095,0.74,Low
0.53,0.118,0.56,High
0.47,0.085,0.68,High
0.6,0.075,0.57,Low
0.44,0.078,0.58,Low
0.54,0.094,0.61,Low
0.29,0.092,0.61,High
0.47,0.085,0.68,High
0.6,0.075,0.57,Low
0.7,0.226,0.6,High
0.7,0.226,0.6,High
0.5,0.25,0.79,High
0.36,0.095,0.57,High
0.35,0.07,0.91,High
0.36,0.095,0.57,High
0.24,0.075,0.61,Low
0.59,0.07,0.56,Low
0.34,0.078,0.7,High
0.27,0.079,0.8,High
0.5,0.103,0.52,Low
0.44,0.083,0.6,Low
0.47,0.085,0.6,Low
0.31,0.063,0.51,High
0.5,0.089,0.44,Low
0.5,0.089,0.44,Low
0.49,0.083,0.43,Low
0.28,0.074,0.66,High
0.33,0.093,0.76,High
0.51,0.091,0.66,High
0.31,0.094,1.02,High
0.73,0.108,0.59,Low
0.42,0.06,0.74,High
0.29,0.059,0.74,High
0.45,0.084,0.57,Low
0.39,0.07,0.5,High
0.45,0.084,0.57,Low
0.49,0.094,0.58,Low
0.72,0.096,0.53,Low
0.595,0.086,0.57,Low
0.4,0.059,0.6,High
0.58,0.071,0.63,High
0.585,0.078,0.48,High
0.59,0.082,0.7,High
0.915,0.088,0.47,Low
0.46,0.071,0.56,High
0.835,0.081,0.52,Low
0.46,0.071,0.56,High
0.58,0.096,0.62,High
0.6,0.085,0.59,High
0.41,0.072,0.79,High
0.48,0.092,0.53,High
0.65,0.11,0.64,High
0.36,0.075,0.52,High
0.24,0.083,0.54,Low
0.38,0.081,0.54,Low
0.64,0.077,0.6,High
0.39,0.058,0.74,Low
0.755,0.148,1.36,High
0.6,0.079,0.57,Low
0.6,0.079,0.57,Low
0.31,0.079,0.93,High
0.46,0.122,0.7,Low
0.37,0.088,0.8,Low
0.54,0.076,0.61,Low
0.56,0.078,0.62,Low
0.58,0.08,0.55,Low
0.51,0.077,0.96,High
0.69,0.124,0.72,Low
0.69,0.124,0.72,Low
0.6,0.098,0.49,Low
0.6,0.098,0.49,Low
0.54,0.097,0.6,High
0.685,0.111,0.61,Low
0.54,0.097,0.6,High
0.28,0.105,0.63,Low
0.41,0.087,0.57,High
0.935,0.105,0.64,Low
0.35,0.073,0.58,Low
0.84,0.065,0.55,Low
0.88,0.086,0.53,Low
0.885,0.084,0.53,Low
0.915,0.143,0.65,High
0.29,0.067,1.36,High
0.54,0.071,0.62,Low
0.59,0.071,0.63,Low
0.54,0.071,0.62,Low
0.59,0.071,0.63,Low
0.54,0.071,0.62,Low
0.64,0.115,0.69,High
0.67,0.107,0.63,Low
0.845,0.07,0.58,Low
0.48,0.066,0.67,High
0.42,0.068,0.57,High
0.43,0.106,0.5,Low
0.88,0.104,0.67,Low
0.36,0.096,0.84,Low
0.33,0.079,0.54,High
0.47,0.074,0.46,Low
0.55,0.087,0.61,Low
0.43,0.106,0.5,Low
0.5,0.073,0.68,High
0.52,0.074,0.81,High
0.84,0.096,0.57,Low
0.52,0.074,0.81,High
0.42,0.08,0.64,Low
0.57,0.076,0.7,High
0.28,0.05,0.79,High
0.4,0.092,0.66,Low
0.59,0.084,0.56,Low
0.49,0.222,0.6,High
0.34,0.082,0.66,High
0.73,0.059,0.57,Low
0.34,0.082,0.66,High
0.4,0.083,0.58,Low
0.73,0.074,0.52,Low
1.24,0.079,0.53,Low
0.73,0.074,0.52,Low
0.4,0.084,0.67,High
0.41,0.064,0.65,Low
0.4,0.084,0.67,High
0.8,0.084,0.48,Low
0.78,0.081,0.53,Low
0.26,0.06,0.54,Low
0.43,0.07,0.49,Low
0.45,0.094,0.49,High
0.46,0.078,0.54,Low
0.78,0.059,0.56,Low
0.98,0.078,0.48,Low
0.78,0.059,0.56,Low
0.65,0.07,0.6,Low
0.64,0.095,0.59,Low
0.66,0.039,0.47,Low
0.38,0.157,1.05,Low
1.185,0.097,0.54,Low
0.92,0.087,0.54,Low
0.49,0.422,1.17,Low
0.48,0.084,0.62,Low
0.47,0.084,0.61,Low
0.47,0.034,0.62,High
0.65,0.066,0.67,High
0.65,0.066,0.67,High
0.615,0.087,0.53,Low
0.38,0.071,0.62,High
1.02,0.076,0.57,High
0.65,0.066,0.67,High
0.64,0.067,0.67,High
0.38,0.073,0.7,Low
0.765,0.078,0.54,Low
1.035,0.073,0.49,Low
0.78,0.093,0.47,Low
0.49,0.077,0.51,Low
0.545,0.068,0.61,High
0.31,0.062,0.66,High
1.025,0.08,0.57,Low
0.565,0.093,0.61,Low
0.69,0.084,0.45,Low
0.43,0.075,0.46,Low
0.74,0.078,0.51,Low
0.49,0.069,0.48,High
0.43,0.075,0.46,Low
0.46,0.079,0.57,Low
0.56,0.082,0.44,Low
0.66,0.086,0.54,Low
0.56,0.082,0.44,Low
0.48,0.094,0.53,Low
0.42,0.084,0.59,Low
0.31,0.053,1.62,Low
1.115,0.086,0.6,Low
0.66,0.077,0.55,Low
0.72,0.084,0.72,High
0.57,0.067,0.68,Low
0.57,0.067,0.68,Low
0.865,0.071,0.49,High
0.55,0.387,0.67,Low
0.875,0.088,0.52,Low
0.835,0.092,0.47,Low
0.45,0.082,0.6,Low
0.56,0.075,0.62,Low
0.965,0.112,0.5,Low
0.965,0.112,0.5,Low
0.59,0.093,0.65,High
0.46,0.092,0.56,Low
0.69,0.088,0.6,Low
0.76,0.075,0.68,High
0.53,0.078,0.57,Low
0.615,0.065,0.65,Low
0.41,0.096,0.53,Low
0.39,0.095,0.51,Low
0.51,0.07,0.73,High
0.34,0.08,0.47,High
0.33,0.083,0.48,Low
0.5,0.071,0.72,High
0.51,0.07,0.73,High
0.65,0.089,0.55,Low
0.65,0.089,0.55,Low
0.54,0.097,0.61,Low
0.65,0.089,0.55,Low
0.48,0.415,1.06,High
0.91,0.058,0.43,High
0.98,0.057,0.46,High
0.87,0.084,0.5,Low
0.87,0.084,0.5,Low
0.42,0.092,0.52,Low
0.58,0.075,0.57,Low
0.655,0.096,0.42,Low
0.7,0.069,0.53,High
0.655,0.096,0.42,Low
0.68,0.093,0.55,High
0.67,0.091,0.54,High
0.59,0.089,0.54,Low
0.6,0.103,0.62,Low
0.59,0.082,0.53,High
0.72,0.076,0.54,Low
0.59,0.082,0.53,High
0.685,0.082,0.55,Low
0.57,0.082,0.55,Low
0.4,0.157,0.92,High
0.4,0.157,0.91,High
1,0.102,0.46,Low
0.765,0.243,0.6,High
0.635,0.241,0.59,High
0.43,0.079,0.61,Low
0.52,0.076,0.6,Low
0.57,0.19,0.6,High
0.46,0.114,0.65,Low
0.82,0.081,0.53,Low
0.46,0.114,0.65,Low
0.59,0.077,0.59,Low
0.35,0.083,0.5,Low
0.35,0.083,0.5,Low
0.56,0.079,0.56,High
0.56,0.079,0.56,High
0.63,0.099,0.52,Low
0.37,0.082,0.68,High
0.64,0.084,0.54,Low
0.61,0.081,0.6,High
0.6,0.055,0.56,Low
0.27,0.065,0.53,High
0.89,0.132,1.18,Low
0.46,0.126,0.74,Low
0.37,0.038,0.81,High
0.5,0.082,0.52,High
0.5,0.082,0.52,High
0.61,0.082,0.51,Low
0.55,0.068,0.44,Low
0.585,0.044,0.94,High
0.56,0.114,0.66,High
0.52,0.084,0.57,High
0.28,0.052,0.7,High
0.25,0.041,0.71,High
0.28,0.052,0.7,High
0.53,0.165,0.86,Low
0.48,0.07,0.55,High
0.49,0.068,0.47,Low
0.5,0.072,0.68,High
0.45,0.099,0.71,Low
0.39,0.102,0.58,Low
0.41,0.103,0.76,High
0.45,0.099,0.71,Low
0.51,0.081,0.58,High
0.29,0.084,0.73,High
0.715,0.071,0.45,Low
0.66,0.097,0.54,Low
0.685,0.099,0.6,Low
0.42,0.048,0.74,High
0.54,0.076,0.64,Low
0.54,0.076,0.64,Low
0.48,0.068,0.53,Low
0.46,0.076,0.49,Low
0.27,0.05,0.64,High
0.46,0.076,0.49,Low
0.57,0.065,0.74,High
0.61,0.071,0.77,High
0.685,0.058,0.55,Low
0.61,0.071,0.77,High
0.44,0.145,0.86,Low
0.47,0.147,0.86,Low
0.685,0.088,0.47,Low
0.665,0.066,0.51,Low
0.28,0.012,0.39,High
0.28,0.012,0.39,High
0.31,0.075,0.83,High
0.5,0.092,0.47,Low
0.42,0.085,0.77,High
0.66,0.115,0.63,Low
0.5,0.119,0.72,High
0.685,0.088,0.62,Low
0.25,0.062,0.83,High
0.64,0.081,0.66,Low
0.64,0.081,0.66,Low
0.68,0.078,0.7,High
0.64,0.081,0.66,Low
0.63,0.08,0.66,Low
0.43,0.085,0.55,Low
0.43,0.085,0.55,Low
0.42,0.08,1.07,Low
0.36,0.08,0.73,High
0.36,0.08,0.73,High
0.735,0.071,0.71,High
0.36,0.08,0.73,High
0.26,0.073,0.78,High
0.28,0.054,0.67,High
0.56,0.074,0.82,High
0.62,0.077,0.54,Low
1.01,0.039,0.6,High
0.42,0.067,0.44,Low
0.62,0.078,0.53,Low
0.62,0.077,0.54,Low
0.635,0.077,0.54,Low
0.49,0.071,0.83,High
0.51,0.072,0.84,High
0.56,0.074,0.82,High
0.63,0.08,0.64,High
0.715,0.064,0.57,High
0.56,0.086,0.57,Low
0.35,0.067,0.54,Low
0.21,0.067,0.58,High
0.38,0.104,0.65,High
0.31,0.109,0.79,High
0.47,0.067,0.58,Low
0.715,0.064,0.57,High
0.61,0.094,0.5,High
0.6,0.076,0.55,Low
0.56,0.078,0.49,Low
0.715,0.068,0.65,High
0.31,0.194,0.78,High
0.6,0.076,0.55,Low
0.61,0.094,0.5,High
0.75,0.086,0.64,Low
0.8,0.083,0.65,High
0.52,0.066,0.79,High
0.57,0.072,0.56,High
0.9,0.112,0.68,Low
0.34,0.071,0.58,Low
0.66,0.078,0.57,Low
0.45,0.082,0.65,High
0.66,0.078,0.57,Low
0.63,0.08,0.58,High
0.59,0.08,0.58,High
0.31,0.078,0.77,High
0.59,0.08,0.58,High
0.31,0.078,0.77,High
1.02,0.084,0.49,Low
0.31,0.056,0.69,Low
0.635,0.08,0.69,High
0.635,0.08,0.69,High
0.59,0.06,0.59,High
0.59,0.06,0.59,High
0.58,0.081,0.59,Low
0.54,0.084,0.71,Low
0.56,0.079,0.54,High
0.52,0.078,0.59,High
0.305,0.059,0.52,High
0.38,0.132,0.57,High
0.28,0.114,0.6,High
0.46,0.065,0.62,High
0.395,0.094,0.64,High
0.305,0.059,0.52,High
0.315,0.079,0.67,High
0.715,0.161,0.61,Low
0.41,0.084,0.64,High
0.36,0.081,0.72,High
0.62,0.072,0.89,High
0.41,0.091,0.56,Low
0.36,0.081,0.72,High
0.62,0.072,0.89,High
0.41,0.084,0.64,High
0.47,0.055,0.8,Low
0.22,0.064,0.87,High
0.24,0.061,0.9,High
0.67,0.093,0.59,Low
0.47,0.055,0.8,Low
0.33,0.063,0.73,High
0.61,0.08,0.73,Low
0.61,0.074,0.65,Low
0.4,0.078,0.59,High
0.61,0.074,0.65,Low
0.61,0.08,0.73,Low
0.3,0.06,0.72,High
0.3,0.06,0.72,High
0.63,0.071,0.6,Low
0.38,0.068,0.72,High
0.46,0.073,0.54,Low
0.33,0.074,0.76,High
0.27,0.082,0.52,High
0.43,0.092,0.64,High
0.5,0.094,0.6,High
0.3,0.09,0.64,High
0.44,0.071,0.79,High
0.44,0.092,0.99,High
0.28,0.093,0.62,High
0.12,0.075,0.76,High
0.12,0.075,0.76,High
0.12,0.075,0.76,High
0.28,0.093,0.62,High
0.31,0.058,0.68,High
0.34,0.052,0.69,High
0.43,0.082,0.54,High
0.21,0.09,0.67,Low
0.36,0.111,0.62,High
0.37,0.088,0.58,High
0.57,0.12,0.71,High
0.59,0.089,0.61,Low
0.47,0.058,0.85,High
0.56,0.078,0.62,Low
0.57,0.115,0.69,Low
0.27,0.1,0.69,High
0.47,0.058,0.85,High
0.34,0.065,0.86,High
0.38,0.103,0.58,High
0.66,0.097,0.48,Low
0.4,0.068,0.6,High
0.56,0.079,0.61,Low
0.26,0.066,0.87,High
0.26,0.066,0.87,High
0.38,0.104,0.65,High
0.34,0.079,0.63,Low
0.33,0.073,0.62,High
0.41,0.083,0.52,Low
0.41,0.083,0.52,Low
0.59,0.109,0.5,Low
0.4,0.061,0.49,High
0.45,0.075,0.63,Low
0.5,0.065,0.71,High
0.86,0.079,0.62,Low
0.52,0.07,0.82,High
0.5,0.065,0.71,High
0.45,0.075,0.63,Low
0.58,0.064,0.58,High
0.34,0.066,0.55,High
0.36,0.08,0.5,Low
0.39,0.097,0.49,Low
0.295,0.073,0.51,High
0.39,0.097,0.49,Low
0.34,0.082,0.48,Low
0.4,0.076,0.48,High
0.34,0.082,0.48,Low
0.35,0.092,0.43,Low
0.6,0.079,0.62,High
0.66,0.087,0.63,High
0.66,0.087,0.63,High
0.84,0.05,0.48,High
0.69,0.055,0.53,High
0.43,0.062,0.72,High
0.35,0.058,0.82,High
0.29,0.063,0.84,High
0.36,0.067,0.55,High
0.43,0.081,0.54,Low
0.36,0.067,0.55,High
0.29,0.063,0.84,High
0.3,0.064,0.84,High
0.35,0.11,0.7,High
0.5,0.116,0.68,Low
0.28,0.067,0.55,High
0.32,0.088,0.55,High
1.005,0.102,0.48,Low
0.71,0.092,0.58,High
0.58,0.12,0.58,High
0.39,0.075,0.84,High
0.38,0.068,0.75,High
0.18,0.049,0.44,High
0.18,0.049,0.44,High
0.5,0.078,0.61,Low
0.36,0.123,0.53,High
0.36,0.123,0.53,High
0.51,0.062,0.54,Low
0.32,0.098,0.55,High
0.58,0.088,0.56,High
0.83,0.095,0.6,High
0.31,0.066,0.56,High
0.795,0.065,0.52,Low
0.34,0.075,0.54,High
0.58,0.088,0.56,High
0.59,0.091,0.55,High
0.55,0.093,0.58,High
0.82,0.095,0.53,Low
0.57,0.089,0.59,High
0.745,0.077,0.47,High
0.37,0.085,0.65,High
0.31,0.082,0.59,High
0.91,0.074,0.56,Low
0.41,0.078,0.77,High
0.5,0.088,0.83,High
0.965,0.088,0.67,Low
0.49,0.079,0.64,High
0.5,0.088,0.83,High
0.39,0.069,0.81,High
0.39,0.046,0.62,High
0.44,0.07,0.58,High
0.78,0.076,0.62,High
0.43,0.082,0.64,Low
0.49,0.081,0.78,High
0.5,0.084,0.77,High
0.43,0.082,0.64,Low
0.46,0.414,1.34,Low
0.605,0.073,0.55,Low
0.33,0.07,0.77,High
0.64,0.095,0.62,High
0.64,0.095,0.62,High
0.48,0.101,0.59,High
0.42,0.104,0.57,Low
0.53,0.093,0.76,High
0.48,0.101,0.59,High
0.23,0.074,0.7,High
0.4,0.071,0.69,High
0.38,0.098,0.64,High
0.29,0.075,0.63,High
0.74,0.067,0.57,High
0.61,0.083,0.6,High
0.52,0.07,0.72,High
0.31,0.06,0.83,High
0.31,0.06,0.83,High
0.62,0.086,0.62,Low
0.33,0.057,0.89,High
0.77,0.098,0.58,Low
0.35,0.083,0.58,High
0.62,0.088,0.58,High
0.77,0.098,0.58,Low
0.25,0.071,0.86,High
0.32,0.073,0.73,High
0.37,0.08,0.58,Low
0.37,0.08,0.58,Low
0.3,0.05,0.51,High
0.27,0.047,0.51,High
0.3,0.05,0.51,High
0.38,0.073,0.59,High
0.42,0.072,0.77,High
0.38,0.073,0.59,High
0.48,0.074,0.49,Low
0.34,0.055,0.66,High
0.19,0.057,0.69,High
0.41,0.095,0.76,High
0.41,0.095,0.76,High
0.26,0.083,0.63,High
0.34,0.086,0.6,High
0.54,0.081,0.59,High
0.31,0.079,0.86,High
0.725,0.117,0.49,High
0.4,0.087,0.5,Low
0.725,0.117,0.49,High
0.52,0.096,0.52,Low
0.31,0.216,0.81,High
0.52,0.096,0.52,Low
0.34,0.072,0.78,High
0.49,0.071,0.63,High
0.48,0.078,0.54,High
0.49,0.071,0.63,High
0.48,0.073,0.66,High
0.57,0.048,0.6,Low
0.23,0.069,0.54,High
0.3,0.068,0.85,High
0.78,0.09,0.49,Low
0.47,0.171,0.76,High
0.53,0.07,0.64,High
0.42,0.092,0.64,High
0.33,0.056,0.71,High
0.24,0.074,0.59,High
0.4,0.046,0.66,High
0.69,0.091,0.6,High
0.69,0.091,0.6,High
0.69,0.091,0.6,High
0.39,0.065,0.53,High
0.66,0.066,0.58,Low
0.54,0.076,0.72,High
0.5,0.062,0.55,High
0.47,0.055,0.48,High
0.4,0.081,0.65,High
0.58,0.096,0.62,Low
0.24,0.055,0.59,High
0.29,0.063,0.54,High
0.76,0.072,0.6,High
0.43,0.095,0.68,Low
0.43,0.092,0.69,High
0.6,0.058,0.63,High
0.19,0.045,0.44,Low
0.36,0.075,0.88,High
0.48,0.089,0.68,High
0.28,0.061,0.74,High
0.25,0.067,0.6,High
0.52,0.08,0.76,High
0.52,0.08,0.76,High
0.41,0.104,0.58,Low
0.51,0.079,0.64,High
0.4,0.08,0.65,High
0.38,0.08,0.85,High
0.45,0.043,0.65,High
0.22,0.065,0.82,High
0.32,0.066,0.62,Low
0.2,0.076,0.81,High
0.5,0.178,0.87,High
0.41,0.071,0.49,High
0.39,0.086,0.66,High
0.35,0.061,0.52,High
0.33,0.067,0.76,High
0.58,0.044,0.65,High
0.6,0.118,0.53,Low
0.42,0.083,0.66,High
0.58,0.1,0.68,High
0.6,0.118,0.53,Low
0.18,0.071,0.76,High
0.51,0.042,0.87,High
0.41,0.076,1.16,High
0.41,0.11,0.67,Low
0.36,0.087,0.72,High
0.45,0.076,0.75,High
0.32,0.075,0.71,High
0.785,0.078,0.67,Low
0.785,0.078,0.67,Low
0.44,0.369,1.1,Low
0.54,0.111,0.98,Low
0.33,0.074,0.88,High
0.34,0.067,0.56,High
0.5,0.086,0.62,High
0.36,0.062,0.67,High
0.59,0.078,0.68,High
0.42,0.074,0.74,High
0.36,0.079,0.62,High
0.36,0.079,0.62,High
0.61,0.095,0.7,High
0.88,0.079,0.5,Low
0.66,0.052,0.66,High
0.915,0.041,0.73,Low
0.35,0.076,0.81,High
0.35,0.076,0.81,High
0.39,0.068,0.46,Low
0.4,0.068,0.86,High
0.66,0.07,0.6,Low
0.64,0.08,0.7,Low
0.43,0.085,0.46,High
0.8,0.079,0.5,Low
0.43,0.085,0.46,High
0.64,0.08,0.7,Low
0.955,0.075,0.44,Low
0.4,0.08,0.57,High
0.885,0.166,0.51,Low
0.25,0.063,0.8,High
0.885,0.166,0.51,Low
0.745,0.114,0.59,High
0.43,0.078,0.6,High
0.58,0.076,0.58,High
0.57,0.069,0.54,High
0.26,0.052,0.79,High
0.58,0.076,0.58,High
0.57,0.069,0.54,High
0.34,0.065,0.54,High
0.42,0.068,0.69,High
0.74,0.111,0.55,Low
0.36,0.074,0.85,High
0.36,0.074,0.85,High
0.36,0.074,0.85,High
0.72,0.136,0.94,Low
0.36,0.074,0.85,High
0.39,0.071,0.87,High
0.65,0.078,0.62,High
0.44,0.076,0.62,Low
0.65,0.078,0.62,High
0.38,0.071,0.75,High
0.33,0.081,0.48,High
0.27,0.095,0.56,High
0.57,0.079,0.69,High
0.34,0.057,0.81,High
0.4,0.082,0.69,High
0.39,0.044,0.83,High
0.32,0.132,0.77,High
0.32,0.132,0.77,High
0.53,0.078,0.46,High
0.36,0.074,0.76,High
0.39,0.08,0.82,High
0.46,0.091,0.51,Low
0.58,0.08,0.47,Low
0.58,0.104,0.72,Low
0.42,0.044,0.73,High
0.43,0.075,0.64,Low
0.18,0.066,0.78,High
0.815,0.074,0.62,Low
0.43,0.075,0.64,Low
0.23,0.057,0.49,Low
0.75,0.059,0.4,High
0.33,0.054,0.56,Low
0.55,0.07,0.64,High
0.75,0.059,0.4,High
0.73,0.081,0.46,Low
0.67,0.057,0.56,Low
0.61,0.076,0.4,Low
0.37,0.079,0.59,Low
0.4,0.058,0.6,High
0.56,0.082,0.62,Low
0.29,0.067,0.54,High
0.55,0.082,0.68,Low
0.74,0.086,0.48,Low
0.55,0.082,0.68,Low
0.41,0.081,0.75,High
0.6,0.079,0.61,High
0.6,0.079,0.61,High
0.58,0.077,0.59,Low
0.72,0.123,0.58,Low
0.66,0.096,0.58,Low
0.7,0.079,0.69,Low
0.64,0.069,0.45,Low
0.59,0.082,0.42,Low
0.58,0.085,0.7,High
0.64,0.123,0.63,High
0.64,0.123,0.63,High
0.635,0.403,1.15,Low
1.02,0.083,0.55,Low
0.45,0.081,0.58,Low
0.78,0.089,0.46,Low
0.37,0.066,0.72,High
0.57,0.081,0.6,High
0.57,0.081,0.6,High
0.43,0.068,0.87,High
0.41,0.079,0.55,High
0.49,0.044,0.82,High
0.38,0.048,0.75,High
0.44,0.049,0.57,High
0.46,0.077,0.53,Low
0.58,0.073,0.43,Low
0.58,0.102,0.53,High
0.715,0.075,0.54,High
0.4,0.05,0.56,Low
0.69,0.114,0.6,High
0.715,0.075,0.54,High
0.3,0.062,0.57,High
0.46,0.077,0.64,High
0.46,0.077,0.64,High
0.765,0.084,0.68,High
0.63,0.096,0.63,High
0.42,0.071,0.56,Low
0.37,0.09,0.57,Low
0.16,0.068,0.54,High
0.6,0.056,0.37,Low
0.6,0.068,1.17,Low
0.6,0.068,1.17,Low
0.74,0.1,0.59,Low
0.635,0.073,0.75,High
0.395,0.056,0.67,High
0.755,0.084,0.49,Low
0.635,0.073,0.75,High
0.63,0.093,0.45,Low
0.63,0.093,0.45,Low
0.53,0.064,0.61,High
0.6,0.063,0.56,High
1.58,0.137,0.4,Low
0.645,0.08,0.61,High
0.86,0.1,0.74,High
0.37,0.064,0.8,High
0.28,0.081,0.66,Low
0.79,0.087,0.44,Low
0.61,0.073,0.53,Low
0.69,0.088,0.62,Low
0.68,0.068,0.52,Low
0.69,0.088,0.62,Low
0.62,0.071,0.61,Low
0.61,0.073,0.53,Low
0.51,0.064,0.59,High
1.18,0.083,0.47,Low
0.36,0.086,0.54,High
0.36,0.086,0.53,High
0.63,0.083,0.58,High
0.74,0.041,0.59,High
0.44,0.091,0.69,High
0.63,0.083,0.58,High
0.76,0.414,1.33,High
0.66,0.094,0.66,Low
0.74,0.041,0.59,High
0.34,0.058,0.55,Low
0.36,0.06,0.82,High
0.46,0.077,0.6,High
0.46,0.077,0.6,High
0.46,0.077,0.6,High
0.46,0.077,0.6,High
0.52,0.073,0.52,Low
0.6,0.083,0.56,High
0.6,0.083,0.56,High
0.87,0.107,0.46,Low
0.39,0.075,0.43,High
0.775,0.079,0.51,Low
0.835,0.166,0.52,Low
0.58,0.069,0.66,High
0.5,0.057,0.45,Low
0.5,0.057,0.45,Low
0.5,0.057,0.45,Low
0.51,0.084,0.54,High
0.51,0.084,0.54,High
0.51,0.084,0.54,High
0.54,0.085,0.51,High
0.51,0.084,0.54,High
0.42,0.077,0.53,Low
0.44,0.063,0.53,High
0.59,0.056,0.56,Low
0.655,0.078,0.39,Low
0.655,0.078,0.39,Low
0.57,0.081,0.52,Low
0.6,0.069,0.57,Low
0.62,0.065,0.51,High
0.645,0.086,0.46,Low
0.645,0.086,0.46,Low
0.58,0.077,0.52,Low
0.32,0.086,0.44,Low
0.34,0.084,0.44,Low
0.43,0.078,0.59,High
0.64,0.168,0.5,Low
0.475,0.091,0.65,High
0.54,0.112,0.56,Low
0.85,0.093,0.54,Low
0.475,0.091,0.65,High
0.83,0.08,0.48,Low
0.605,0.096,0.53,High
0.5,0.115,0.62,Low
0.74,0.094,0.5,Low
0.54,0.088,1.18,High
0.77,0.079,0.5,High
0.61,0.069,0.37,Low
0.78,0.415,1.17,Low
0.58,0.153,1.03,High
0.78,0.415,1.17,Low
0.75,0.11,0.45,Low
0.815,0.267,0.51,Low
0.56,0.083,0.52,Low
0.885,0.086,0.46,Low
0.49,0.09,0.62,High
0.45,0.078,0.51,High
0.57,0.077,0.62,High
0.57,0.077,0.62,High
0.83,0.074,0.45,Low
0.6,0.08,0.49,Low
0.6,0.08,0.49,Low
0.755,0.107,0.5,Low
0.81,0.076,0.42,Low
0.64,0.1,0.58,Low
0.64,0.1,0.58,Low
0.64,0.083,0.68,Low
0.48,0.08,0.53,Low
0.49,0.068,0.59,High
0.64,0.094,0.58,Low
0.62,0.07,0.48,Low
0.52,0.078,0.48,Low
0.57,0.07,0.48,Low
0.685,0.092,0.65,High
0.675,0.09,0.65,Low
0.59,0.08,0.52,Low
0.6,0.083,0.62,High
0.67,0.068,0.72,High
0.69,0.08,0.51,Low
0.69,0.08,0.51,Low
0.3,0.052,0.82,High
0.33,0.061,1.1,High
0.5,0.082,0.62,High
0.28,0.062,0.9,High
0.24,0.062,0.94,High
0.51,0.064,0.93,High
0.29,0.048,1.01,High
0.51,0.064,0.93,High
0.96,0.082,0.44,High
0.47,0.071,0.73,High
0.24,0.062,0.94,High
0.57,0.104,0.9,Low
0.32,0.077,0.78,Low
0.58,0.065,0.84,Low
0.32,0.077,0.78,Low
0.34,0.064,0.77,High
0.53,0.077,0.46,Low
0.64,0.077,0.45,Low
0.53,0.077,0.46,Low
0.4,0.079,0.58,Low
0.54,0.079,0.84,High
0.53,0.123,0.67,Low
0.26,0.076,0.7,High
0.26,0.076,0.7,High
0.23,0.046,0.71,High
0.41,0.078,0.58,Low
0.64,0.072,0.63,Low
0.18,0.049,0.93,Low
0.41,0.066,0.62,Low
0.43,0.069,0.54,High
0.44,0.042,0.85,High
0.4,0.069,0.74,High
0.54,0.214,0.77,High
0.54,0.214,0.77,High
0.38,0.169,0.65,Low
0.915,0.07,0.54,Low
0.59,0.052,0.47,Low
0.67,0.072,0.68,High
0.37,0.062,0.73,High
0.785,0.094,0.52,High
0.63,0.078,0.75,Low
0.58,0.058,0.49,Low
0.67,0.072,0.68,High
0.785,0.094,0.52,High
0.63,0.078,0.75,Low
0.67,0.08,0.74,Low
0.58,0.08,0.73,Low
0.38,0.056,0.76,High
0.37,0.062,0.73,High
0.32,0.104,0.78,High
0.58,0.062,0.76,High
0.49,0.074,0.58,Low
0.45,0.073,0.69,High
0.9,0.052,0.63,High
0.54,0.05,0.5,High
0.49,0.074,0.58,Low
0.29,0.067,0.6,Low
0.2,0.054,0.8,High
0.42,0.054,0.68,High
0.785,0.06,0.61,Low
0.64,0.075,0.58,High
0.63,0.076,0.53,High
0.59,0.063,0.67,Low
0.59,0.063,0.67,Low
0.48,0.062,0.65,High
1.04,0.067,0.57,Low
0.48,0.062,0.65,High
0.98,0.061,0.55,Low
0.69,0.084,0.47,Low
0.7,0.067,0.52,Low
0.35,0.073,0.79,High
0.6,0.071,0.54,Low
0.5,0.205,0.75,Low
0.47,0.048,0.88,High
0.5,0.205,0.75,Low
0.47,0.048,0.88,High
0.875,0.082,0.52,Low
0.28,0.104,0.68,Low
0.62,0.08,0.62,Low
0.28,0.104,0.68,Low
0.58,0.114,0.57,Low
0.33,0.042,0.61,Low
0.91,0.06,0.64,Low
0.655,0.074,0.55,Low
0.68,0.07,0.6,Low
0.64,0.066,0.78,Low
0.54,0.049,0.58,Low
0.57,0.048,0.76,High
0.22,0.039,0.56,High
0.54,0.049,0.58,Low
0.65,0.05,0.54,Low
0.54,0.089,0.59,Low
0.31,0.066,0.7,High
0.43,0.08,0.81,High
0.54,0.089,0.59,Low
0.74,0.054,0.63,High
0.895,0.068,0.58,High
0.74,0.054,0.63,High
0.725,0.076,0.53,Low
0.82,0.083,0.53,Low
0.585,0.078,0.54,Low
0.44,0.077,0.69,High
0.38,0.106,0.55,High
0.76,0.078,0.63,Low
0.81,0.07,0.66,High
0.38,0.106,0.55,High
0.27,0.074,0.72,High
0.18,0.062,0.7,Low
0.36,0.047,0.77,High
0.69,0.068,0.67,Low
0.79,0.061,0.65,High
0.56,0.078,0.6,High
0.84,0.074,0.72,High
0.84,0.074,0.72,High
0.32,0.071,0.97,Low
0.53,0.063,0.83,High
0.47,0.114,0.63,Low
0.7,0.106,0.58,Low
0.53,0.063,0.83,High
0.48,0.082,0.43,Low
0.32,0.071,0.97,Low
0.48,0.076,0.6,Low
0.42,0.075,0.78,High
0.48,0.064,0.64,Low
0.47,0.064,0.65,High
0.53,0.071,0.66,High
0.29,0.096,0.67,High
0.69,0.063,0.6,High
0.44,0.063,0.69,High
0.705,0.081,0.66,Low
0.53,0.058,0.68,High
0.39,0.074,0.61,Low
0.56,0.064,0.62,High
0.55,0.075,0.59,High
0.53,0.077,0.68,High
0.58,0.059,0.64,High
0.64,0.081,0.63,Low
0.39,0.065,0.78,Low
0.52,0.071,0.63,High
0.25,0.054,0.76,High
0.855,0.064,0.56,High
0.44,0.064,0.57,High
0.37,0.063,0.81,High
0.63,0.059,0.64,High
0.57,0.072,0.61,Low
0.6,0.048,0.51,Low
0.4,0.099,0.58,Low
0.36,0.074,0.7,High
0.68,0.087,0.53,Low
0.67,0.083,0.54,Low
0.68,0.103,0.66,High
0.735,0.08,0.6,Low
0.855,0.062,0.6,High
0.56,0.065,0.68,High
0.88,0.066,0.56,Low
0.855,0.062,0.6,High
0.63,0.235,0.56,Low
0.6,0.08,0.52,Low
0.6,0.08,0.52,Low
0.6,0.08,0.52,Low
0.695,0.076,0.54,Low
0.695,0.076,0.54,Low
0.695,0.076,0.54,Low
0.67,0.061,0.82,High
0.16,0.059,0.71,High
0.695,0.076,0.54,Low
0.56,0.077,0.59,Low
0.51,0.056,0.57,High
0.36,0.23,0.93,High
0.38,0.038,0.65,High
0.69,0.069,0.51,Low
0.58,0.075,0.67,High
0.31,0.074,0.48,High
0.52,0.06,0.64,High
0.3,0.081,0.78,High
0.7,0.076,0.6,High
0.67,0.118,0.67,High
0.56,0.053,0.6,Low
0.35,0.068,0.6,High
0.56,0.053,0.6,Low
0.715,0.053,0.5,Low
0.46,0.074,0.62,Low
0.32,0.061,0.8,High
0.39,0.066,0.84,High
0.31,0.065,0.85,High
0.61,0.066,0.66,High
0.66,0.068,0.78,High
0.725,0.073,0.54,Low
0.55,0.077,0.82,High
0.74,0.089,0.56,High
0.51,0.076,0.75,High
0.62,0.068,0.82,High
0.6,0.09,0.58,Low
0.55,0.062,0.76,High
0.51,0.076,0.75,High
0.645,0.075,0.71,Low
0.31,0.067,0.66,High
